Práctica 2
…
# Creamos una variable lógica para los errores (los códigos de respuesta 4xx y 5xx)
epa_http$error <- grepl("^[45]", epa_http$`Código de respuesta`)

# Agrupamos los datos por IP y error y mostramos resumen
epa_http %>% 
  group_by(IPs, error) %>% 
  summarize(count = n_distinct(Tipo))

## `summarise()` has grouped output by 'IPs'. You can override using the `.groups`
## argument.

## # A tibble: 2,512 × 3
## # Groups:   IPs [2,333]
##    IPs                         error count
##    <fct>                       <lgl> <int>
##  1 108.145.internal.radian.com FALSE     1
##  2 128.104.66.114              FALSE     1
##  3 128.120.5.70                FALSE     1
##  4 128.120.68.34               FALSE     1
##  5 128.138.177.19              FALSE     2
##  6 128.138.177.44              FALSE     1
##  7 128.138.177.6               FALSE     2
##  8 128.144.102.56              FALSE     1
##  9 128.150.157.33              FALSE     1
## 10 128.158.53.34               FALSE     2
## # ℹ 2,502 more rows
…
print(tabla_tipos_respuesta)

## 
##   200   302   304   400   403   404   500   501 
## 36712  4506  5300     6   272   611    69   272

# Ahora agrupamos los datos por IP y tipo de error y mostramos resumen
epa_http %>% 
  group_by(IPs, tipo_error) %>% 
  summarize(count = n_distinct(IPs))

## `summarise()` has grouped output by 'IPs'. You can override using the `.groups`
## argument.

## # A tibble: 2,517 × 3
## # Groups:   IPs [2,333]
##    IPs                         tipo_error count
##    <fct>                       <chr>      <int>
##  1 108.145.internal.radian.com Sin error      1
##  2 128.104.66.114              Sin error      1
##  3 128.120.5.70                Sin error      1
##  4 128.120.68.34               Sin error      1
##  5 128.138.177.19              Sin error      1
##  6 128.138.177.44              Sin error      1
##  7 128.138.177.6               Sin error      1
##  8 128.144.102.56              Sin error      1
##  9 128.150.157.33              Sin error      1
## 10 128.158.53.34               Sin error      1
## # ℹ 2,507 more rows
…
